{
  "Version": "2012-10-17",
  "Statement": [
    {
      "Action": [
        "iot:Connect"
      ],
      "Effect": "Allow",
      "Resource": "*"
    },
    {
      "Action": [
        "iot:Receive"
      ],
      "Effect": "Allow",
      "Resource": "*"
    },
    {
      "Action": [
        "iot:Publish"
      ],
      "Effect": "Allow",
      "Resource": "*"
    },
    {
      "Action": [
        "iot:Subscribe"
      ],
      "Effect": "Allow",
      "Resource": "*"
    }
  ]
}